%YAML 1.1
%TAG !u! tag:unity3d.com,2011:
--- !u!1 &197638
GameObject:
  m_ObjectHideFlags: 0
  m_PrefabParentObject: {fileID: 0}
  m_PrefabInternal: {fileID: 100100000}
  serializedVersion: 4
  m_Component:
  - 4: {fileID: 421460}
  - 114: {fileID: 11480634}
  m_Layer: 0
  m_Name: DefaultSpriteCollection
  m_TagString: Untagged
  m_Icon: {fileID: 0}
  m_NavMeshLayer: 0
  m_StaticEditorFlags: 0
  m_IsActive: 1
--- !u!4 &421460
Transform:
  m_ObjectHideFlags: 1
  m_PrefabParentObject: {fileID: 0}
  m_PrefabInternal: {fileID: 100100000}
  m_GameObject: {fileID: 197638}
  m_LocalRotation: {x: 0, y: 0, z: 0, w: 1}
  m_LocalPosition: {x: 0, y: 0, z: 0}
  m_LocalScale: {x: 1, y: 1, z: 1}
  m_LocalEulerAnglesHint: {x: 0, y: 0, z: 0}
  m_Children: []
  m_Father: {fileID: 0}
  m_RootOrder: 0
--- !u!114 &11480634
MonoBehaviour:
  m_ObjectHideFlags: 1
  m_PrefabParentObject: {fileID: 0}
  m_PrefabInternal: {fileID: 100100000}
  m_GameObject: {fileID: 197638}
  m_Enabled: 1
  m_EditorHideFlags: 0
  m_Script: {fileID: 11500000, guid: d546f34a90531a14eaba82a43b05b86b, type: 3}
  m_Name: 
  m_EditorClassIdentifier: 
  version: 3
  materialIdsValid: 1
  needMaterialInstance: 0
  spriteDefinitions:
  - name: BlackPianoKeyOff
    boundsData:
    - {x: 0, y: -80, z: 0}
    - {x: 34, y: 160, z: 0}
    untrimmedBoundsData:
    - {x: 0, y: -80, z: 0}
    - {x: 34, y: 160, z: 0}
    texelSize: {x: 1, y: 1}
    positions:
    - {x: -17, y: -160, z: 0}
    - {x: 17, y: -160, z: 0}
    - {x: -17, y: 0, z: 0}
    - {x: 17, y: 0, z: 0}
    normals: []
    tangents: []
    uvs:
    - {x: 0.7539102, y: 0.53711134}
    - {x: 0.8867148, y: 0.53711134}
    - {x: 0.7539102, y: 0.8496074}
    - {x: 0.8867148, y: 0.8496074}
    normalizedUvs:
    - {x: 0, y: 0}
    - {x: 1, y: 0}
    - {x: 0, y: 1}
    - {x: 1, y: 1}
    indices: 000000000300000001000000020000000300000000000000
    material: {fileID: 2100000, guid: 4f7f20b176cf89147bdc3bc0c3e40ea4, type: 2}
    materialId: 0
    sourceTextureGUID: 4205571ec4fae024fa64ad138bed0f8b
    extractRegion: 0
    regionX: 0
    regionY: 0
    regionW: 0
    regionH: 0
    flipped: 0
    complexGeometry: 0
    physicsEngine: 0
    colliderType: 0
    customColliders: []
    colliderVertices: []
    colliderIndicesFwd: 
    colliderIndicesBack: 
    colliderConvex: 0
    colliderSmoothSphereCollisions: 0
    polygonCollider2D: []
    edgeCollider2D: []
    attachPoints: []
  - name: WhitePianoKeyOn
    boundsData:
    - {x: 0.5, y: -134.5, z: 0}
    - {x: 55, y: 269, z: 0}
    untrimmedBoundsData:
    - {x: 0.5, y: -134.5, z: 0}
    - {x: 55, y: 269, z: 0}
    texelSize: {x: 1, y: 1}
    positions:
    - {x: -27, y: -269, z: 0}
    - {x: 28, y: -269, z: 0}
    - {x: -27, y: 0, z: 0}
    - {x: 28, y: 0, z: 0}
    normals: []
    tangents: []
    uvs:
    - {x: 0.7539102, y: 0.003908203}
    - {x: 0.96874607, y: 0.003908203}
    - {x: 0.7539102, y: 0.5292949}
    - {x: 0.96874607, y: 0.5292949}
    normalizedUvs:
    - {x: 0, y: 0}
    - {x: 1, y: 0}
    - {x: 0, y: 1}
    - {x: 1, y: 1}
    indices: 000000000300000001000000020000000300000000000000
    material: {fileID: 2100000, guid: 4f7f20b176cf89147bdc3bc0c3e40ea4, type: 2}
    materialId: 0
    sourceTextureGUID: cfd0eb8f82ded8b4aa5a1b439212f712
    extractRegion: 0
    regionX: 0
    regionY: 0
    regionW: 0
    regionH: 0
    flipped: 0
    complexGeometry: 0
    physicsEngine: 0
    colliderType: 0
    customColliders: []
    colliderVertices: []
    colliderIndicesFwd: 
    colliderIndicesBack: 
    colliderConvex: 0
    colliderSmoothSphereCollisions: 0
    polygonCollider2D: []
    edgeCollider2D: []
    attachPoints: []
  - name: WhitePianoKeyOff
    boundsData:
    - {x: 0.5, y: -137, z: 0}
    - {x: 55, y: 274, z: 0}
    untrimmedBoundsData:
    - {x: 0.5, y: -137, z: 0}
    - {x: 55, y: 274, z: 0}
    texelSize: {x: 1, y: 1}
    positions:
    - {x: -27, y: -274, z: 0}
    - {x: 28, y: -274, z: 0}
    - {x: -27, y: 0, z: 0}
    - {x: 28, y: 0, z: 0}
    normals: []
    tangents: []
    uvs:
    - {x: 0.52344143, y: 0.003908203}
    - {x: 0.7382773, y: 0.003908203}
    - {x: 0.52344143, y: 0.53906053}
    - {x: 0.7382773, y: 0.53906053}
    normalizedUvs:
    - {x: 0, y: 0}
    - {x: 1, y: 0}
    - {x: 0, y: 1}
    - {x: 1, y: 1}
    indices: 000000000300000001000000020000000300000000000000
    material: {fileID: 2100000, guid: 4f7f20b176cf89147bdc3bc0c3e40ea4, type: 2}
    materialId: 0
    sourceTextureGUID: 975faf5cd85d52d4d98bf4a097e08fd8
    extractRegion: 0
    regionX: 0
    regionY: 0
    regionW: 0
    regionH: 0
    flipped: 0
    complexGeometry: 0
    physicsEngine: 0
    colliderType: 0
    customColliders: []
    colliderVertices: []
    colliderIndicesFwd: 
    colliderIndicesBack: 
    colliderConvex: 0
    colliderSmoothSphereCollisions: 0
    polygonCollider2D: []
    edgeCollider2D: []
    attachPoints: []
  - name: BlackPianoKeyOn
    boundsData:
    - {x: 0, y: -80, z: 0}
    - {x: 34, y: 160, z: 0}
    untrimmedBoundsData:
    - {x: 0, y: -80, z: 0}
    - {x: 34, y: 160, z: 0}
    texelSize: {x: 1, y: 1}
    positions:
    - {x: -17, y: -160, z: 0}
    - {x: 17, y: -160, z: 0}
    - {x: -17, y: 0, z: 0}
    - {x: 17, y: 0, z: 0}
    normals: []
    tangents: []
    uvs:
    - {x: 0.007816406, y: 0.85742384}
    - {x: 0.007816406, y: 0.92382616}
    - {x: 0.63280857, y: 0.85742384}
    - {x: 0.63280857, y: 0.92382616}
    normalizedUvs:
    - {x: 0, y: 0}
    - {x: 0, y: 1}
    - {x: 1, y: 0}
    - {x: 1, y: 1}
    indices: 000000000300000001000000020000000300000000000000
    material: {fileID: 2100000, guid: 4f7f20b176cf89147bdc3bc0c3e40ea4, type: 2}
    materialId: 0
    sourceTextureGUID: 592fbfb46ac1e5447b588bcbff477e76
    extractRegion: 0
    regionX: 0
    regionY: 0
    regionW: 0
    regionH: 0
    flipped: 1
    complexGeometry: 0
    physicsEngine: 0
    colliderType: 0
    customColliders: []
    colliderVertices: []
    colliderIndicesFwd: 
    colliderIndicesBack: 
    colliderConvex: 0
    colliderSmoothSphereCollisions: 0
    polygonCollider2D: []
    edgeCollider2D: []
    attachPoints: []
  - name: WhiteSquare64x64
    boundsData:
    - {x: 0, y: 0, z: 0}
    - {x: 64, y: 64, z: 0}
    untrimmedBoundsData:
    - {x: 0, y: 0, z: 0}
    - {x: 64, y: 64, z: 0}
    texelSize: {x: 1, y: 1}
    positions:
    - {x: -32, y: -32, z: 0}
    - {x: 32, y: -32, z: 0}
    - {x: -32, y: 32, z: 0}
    - {x: 32, y: 32, z: 0}
    normals: []
    tangents: []
    uvs:
    - {x: 0.64844143, y: 0.85742384}
    - {x: 0.89843357, y: 0.85742384}
    - {x: 0.64844143, y: 0.9824199}
    - {x: 0.89843357, y: 0.9824199}
    normalizedUvs:
    - {x: 0, y: 0}
    - {x: 1, y: 0}
    - {x: 0, y: 1}
    - {x: 1, y: 1}
    indices: 000000000300000001000000020000000300000000000000
    material: {fileID: 2100000, guid: 4f7f20b176cf89147bdc3bc0c3e40ea4, type: 2}
    materialId: 0
    sourceTextureGUID: 31ef5d061e6ec1a4c964090ec1031f46
    extractRegion: 0
    regionX: 0
    regionY: 0
    regionW: 0
    regionH: 0
    flipped: 0
    complexGeometry: 0
    physicsEngine: 0
    colliderType: 0
    customColliders: []
    colliderVertices: []
    colliderIndicesFwd: 
    colliderIndicesBack: 
    colliderConvex: 0
    colliderSmoothSphereCollisions: 0
    polygonCollider2D: []
    edgeCollider2D: []
    attachPoints: []
  - name: WhiteSquare4x4
    boundsData:
    - {x: 0, y: 0, z: 0}
    - {x: 4, y: 4, z: 0}
    untrimmedBoundsData:
    - {x: 0, y: 0, z: 0}
    - {x: 4, y: 4, z: 0}
    texelSize: {x: 1, y: 1}
    positions:
    - {x: -2, y: -2, z: 0}
    - {x: 2, y: -2, z: 0}
    - {x: -2, y: 2, z: 0}
    - {x: 2, y: 2, z: 0}
    normals: []
    tangents: []
    uvs:
    - {x: 0.9648477, y: 0.5878926}
    - {x: 0.9804648, y: 0.5878926}
    - {x: 0.9648477, y: 0.59570116}
    - {x: 0.9804648, y: 0.59570116}
    normalizedUvs:
    - {x: 0, y: 0}
    - {x: 1, y: 0}
    - {x: 0, y: 1}
    - {x: 1, y: 1}
    indices: 000000000300000001000000020000000300000000000000
    material: {fileID: 2100000, guid: 4f7f20b176cf89147bdc3bc0c3e40ea4, type: 2}
    materialId: 0
    sourceTextureGUID: 0fd31f6f1f1fc4beeafc52d97e7d33f2
    extractRegion: 0
    regionX: 0
    regionY: 0
    regionW: 0
    regionH: 0
    flipped: 0
    complexGeometry: 0
    physicsEngine: 0
    colliderType: 0
    customColliders: []
    colliderVertices: []
    colliderIndicesFwd: 
    colliderIndicesBack: 
    colliderConvex: 0
    colliderSmoothSphereCollisions: 0
    polygonCollider2D: []
    edgeCollider2D: []
    attachPoints: []
  - name: Gear
    boundsData:
    - {x: 0.5, y: -0.5, z: 0}
    - {x: 37, y: 37, z: 0}
    untrimmedBoundsData:
    - {x: 0.5, y: -0.5, z: 0}
    - {x: 37, y: 37, z: 0}
    texelSize: {x: 1, y: 1}
    positions:
    - {x: -18, y: -19, z: 0}
    - {x: 19, y: -19, z: 0}
    - {x: -18, y: 18, z: 0}
    - {x: 19, y: 18, z: 0}
    normals: []
    tangents: []
    uvs:
    - {x: 0.007816406, y: 0.25000197}
    - {x: 0.15233985, y: 0.25000197}
    - {x: 0.007816406, y: 0.32226366}
    - {x: 0.15233985, y: 0.32226366}
    normalizedUvs:
    - {x: 0, y: 0}
    - {x: 1, y: 0}
    - {x: 0, y: 1}
    - {x: 1, y: 1}
    indices: 000000000300000001000000020000000300000000000000
    material: {fileID: 2100000, guid: 4f7f20b176cf89147bdc3bc0c3e40ea4, type: 2}
    materialId: 0
    sourceTextureGUID: 36a4d3290f290cc4daf301a7743534ff
    extractRegion: 0
    regionX: 0
    regionY: 0
    regionW: 0
    regionH: 0
    flipped: 0
    complexGeometry: 0
    physicsEngine: 0
    colliderType: 0
    customColliders: []
    colliderVertices: []
    colliderIndicesFwd: 
    colliderIndicesBack: 
    colliderConvex: 0
    colliderSmoothSphereCollisions: 0
    polygonCollider2D: []
    edgeCollider2D: []
    attachPoints: []
  - name: Close-Button
    boundsData:
    - {x: 0, y: 0, z: 0}
    - {x: 32, y: 32, z: 0}
    untrimmedBoundsData:
    - {x: 0, y: 0, z: 0}
    - {x: 32, y: 32, z: 0}
    texelSize: {x: 1, y: 1}
    positions:
    - {x: -16, y: -16, z: 0}
    - {x: 16, y: -16, z: 0}
    - {x: -16, y: 16, z: 0}
    - {x: 16, y: 16, z: 0}
    normals: []
    tangents: []
    uvs:
    - {x: 0.007816406, y: 0.9316426}
    - {x: 0.1328086, y: 0.9316426}
    - {x: 0.007816406, y: 0.99413866}
    - {x: 0.1328086, y: 0.99413866}
    normalizedUvs:
    - {x: 0, y: 0}
    - {x: 1, y: 0}
    - {x: 0, y: 1}
    - {x: 1, y: 1}
    indices: 000000000300000001000000020000000300000000000000
    material: {fileID: 2100000, guid: 4f7f20b176cf89147bdc3bc0c3e40ea4, type: 2}
    materialId: 0
    sourceTextureGUID: 209973e051271634f9976553af3a822c
    extractRegion: 0
    regionX: 0
    regionY: 0
    regionW: 0
    regionH: 0
    flipped: 0
    complexGeometry: 0
    physicsEngine: 0
    colliderType: 0
    customColliders: []
    colliderVertices: []
    colliderIndicesFwd: 
    colliderIndicesBack: 
    colliderConvex: 0
    colliderSmoothSphereCollisions: 0
    polygonCollider2D: []
    edgeCollider2D: []
    attachPoints: []
  - name: Dumbbell
    boundsData:
    - {x: 0.49999952, y: -0.99999976, z: 0}
    - {x: 31, y: 12.000002, z: 0}
    untrimmedBoundsData:
    - {x: 0, y: 0, z: 0}
    - {x: 48, y: 48, z: 0}
    texelSize: {x: 1, y: 1}
    positions:
    - {x: -15, y: -7.0000005, z: 0}
    - {x: 15.999999, y: -7.0000005, z: 0}
    - {x: -15, y: 5.000001, z: 0}
    - {x: 15.999999, y: 5.000001, z: 0}
    normals: []
    tangents: []
    uvs:
    - {x: 0.9023477, y: 0.5878926}
    - {x: 0.9023477, y: 0.64843553}
    - {x: 0.9492148, y: 0.5878926}
    - {x: 0.9492148, y: 0.64843553}
    normalizedUvs:
    - {x: 0, y: 0}
    - {x: 0, y: 1}
    - {x: 1, y: 0}
    - {x: 1, y: 1}
    indices: 000000000300000001000000020000000300000000000000
    material: {fileID: 2100000, guid: 4f7f20b176cf89147bdc3bc0c3e40ea4, type: 2}
    materialId: 0
    sourceTextureGUID: 012a4cba548687d4dbea6a9bd9acf3f7
    extractRegion: 0
    regionX: 0
    regionY: 0
    regionW: 0
    regionH: 0
    flipped: 1
    complexGeometry: 0
    physicsEngine: 0
    colliderType: 0
    customColliders: []
    colliderVertices: []
    colliderIndicesFwd: 
    colliderIndicesBack: 
    colliderConvex: 0
    colliderSmoothSphereCollisions: 0
    polygonCollider2D: []
    edgeCollider2D: []
    attachPoints: []
  - name: Arrow
    boundsData:
    - {x: 2.5, y: 0, z: 0}
    - {x: 59, y: 64, z: 0}
    untrimmedBoundsData:
    - {x: 0, y: 0, z: 0}
    - {x: 64, y: 64, z: 0}
    texelSize: {x: 1, y: 1}
    positions:
    - {x: -27, y: -32, z: 0}
    - {x: 32, y: -32, z: 0}
    - {x: -27, y: 32, z: 0}
    - {x: 32, y: 32, z: 0}
    normals: []
    tangents: []
    uvs:
    - {x: 0.50000393, y: 0.54687697}
    - {x: 0.7304648, y: 0.54687697}
    - {x: 0.50000393, y: 0.67187303}
    - {x: 0.7304648, y: 0.67187303}
    normalizedUvs:
    - {x: 0, y: 0}
    - {x: 1, y: 0}
    - {x: 0, y: 1}
    - {x: 1, y: 1}
    indices: 000000000300000001000000020000000300000000000000
    material: {fileID: 2100000, guid: 4f7f20b176cf89147bdc3bc0c3e40ea4, type: 2}
    materialId: 0
    sourceTextureGUID: 9cc1ab4a301a15e4a9e5ad99e55820d7
    extractRegion: 0
    regionX: 0
    regionY: 0
    regionW: 0
    regionH: 0
    flipped: 0
    complexGeometry: 0
    physicsEngine: 0
    colliderType: 0
    customColliders: []
    colliderVertices: []
    colliderIndicesFwd: 
    colliderIndicesBack: 
    colliderConvex: 0
    colliderSmoothSphereCollisions: 0
    polygonCollider2D: []
    edgeCollider2D: []
    attachPoints: []
  - name: DropdownBoxBackground
    boundsData:
    - {x: 0, y: 0, z: 0}
    - {x: 122, y: 128, z: 0}
    untrimmedBoundsData:
    - {x: 0, y: 0, z: 0}
    - {x: 122, y: 128, z: 0}
    texelSize: {x: 1, y: 1}
    positions:
    - {x: -61, y: -64, z: 0}
    - {x: 61, y: -64, z: 0}
    - {x: -61, y: 64, z: 0}
    - {x: 61, y: 64, z: 0}
    normals: []
    tangents: []
    uvs:
    - {x: 0.007816406, y: 0.003908203}
    - {x: 0.007816406, y: 0.24218555}
    - {x: 0.50780857, y: 0.003908203}
    - {x: 0.50780857, y: 0.24218555}
    normalizedUvs:
    - {x: 0, y: 0}
    - {x: 0, y: 1}
    - {x: 1, y: 0}
    - {x: 1, y: 1}
    indices: 000000000300000001000000020000000300000000000000
    material: {fileID: 2100000, guid: 4f7f20b176cf89147bdc3bc0c3e40ea4, type: 2}
    materialId: 0
    sourceTextureGUID: 36ef1f96577964a40ae4e8fbca8ab459
    extractRegion: 0
    regionX: 0
    regionY: 0
    regionW: 0
    regionH: 0
    flipped: 1
    complexGeometry: 0
    physicsEngine: 0
    colliderType: 0
    customColliders: []
    colliderVertices: []
    colliderIndicesFwd: 
    colliderIndicesBack: 
    colliderConvex: 0
    colliderSmoothSphereCollisions: 0
    polygonCollider2D: []
    edgeCollider2D: []
    attachPoints: []
  - name: DropdownBoxButtonOpen
    boundsData:
    - {x: 0.5, y: 0, z: 0}
    - {x: 69, y: 40, z: 0}
    untrimmedBoundsData:
    - {x: 0.5, y: 0, z: 0}
    - {x: 69, y: 40, z: 0}
    texelSize: {x: 1, y: 1}
    positions:
    - {x: -34, y: -20, z: 0}
    - {x: 35, y: -20, z: 0}
    - {x: -34, y: 20, z: 0}
    - {x: 35, y: 20, z: 0}
    normals: []
    tangents: []
    uvs:
    - {x: 0.50000393, y: 0.67968947}
    - {x: 0.50000393, y: 0.81445116}
    - {x: 0.65624607, y: 0.67968947}
    - {x: 0.65624607, y: 0.81445116}
    normalizedUvs:
    - {x: 0, y: 0}
    - {x: 0, y: 1}
    - {x: 1, y: 0}
    - {x: 1, y: 1}
    indices: 000000000300000001000000020000000300000000000000
    material: {fileID: 2100000, guid: 4f7f20b176cf89147bdc3bc0c3e40ea4, type: 2}
    materialId: 0
    sourceTextureGUID: 1dd53eedf9d0217479c825b3372e99cc
    extractRegion: 0
    regionX: 0
    regionY: 0
    regionW: 0
    regionH: 0
    flipped: 1
    complexGeometry: 0
    physicsEngine: 0
    colliderType: 0
    customColliders: []
    colliderVertices: []
    colliderIndicesFwd: 
    colliderIndicesBack: 
    colliderConvex: 0
    colliderSmoothSphereCollisions: 0
    polygonCollider2D: []
    edgeCollider2D: []
    attachPoints: []
  - name: DropdownBoxBackgroundOpen
    boundsData:
    - {x: 0, y: 0, z: 0}
    - {x: 122, y: 128, z: 0}
    untrimmedBoundsData:
    - {x: 0, y: 0, z: 0}
    - {x: 122, y: 128, z: 0}
    texelSize: {x: 1, y: 1}
    positions:
    - {x: -61, y: -64, z: 0}
    - {x: 61, y: -64, z: 0}
    - {x: -61, y: 64, z: 0}
    - {x: 61, y: 64, z: 0}
    normals: []
    tangents: []
    uvs:
    - {x: 0.007816406, y: 0.54687697}
    - {x: 0.4843711, y: 0.54687697}
    - {x: 0.007816406, y: 0.79687303}
    - {x: 0.4843711, y: 0.79687303}
    normalizedUvs:
    - {x: 0, y: 0}
    - {x: 1, y: 0}
    - {x: 0, y: 1}
    - {x: 1, y: 1}
    indices: 000000000300000001000000020000000300000000000000
    material: {fileID: 2100000, guid: 4f7f20b176cf89147bdc3bc0c3e40ea4, type: 2}
    materialId: 0
    sourceTextureGUID: 0206a8640801a4f4d9d4cc675cf87087
    extractRegion: 0
    regionX: 0
    regionY: 0
    regionW: 0
    regionH: 0
    flipped: 0
    complexGeometry: 0
    physicsEngine: 0
    colliderType: 0
    customColliders: []
    colliderVertices: []
    colliderIndicesFwd: 
    colliderIndicesBack: 
    colliderConvex: 0
    colliderSmoothSphereCollisions: 0
    polygonCollider2D: []
    edgeCollider2D: []
    attachPoints: []
  - name: TutorialDot
    boundsData:
    - {x: 0, y: 0, z: 0}
    - {x: 22, y: 22, z: 0}
    untrimmedBoundsData:
    - {x: 0, y: 0, z: 0}
    - {x: 22, y: 22, z: 0}
    texelSize: {x: 1, y: 1}
    positions:
    - {x: -11, y: -11, z: 0}
    - {x: 11, y: -11, z: 0}
    - {x: -11, y: 11, z: 0}
    - {x: 11, y: 11, z: 0}
    normals: []
    tangents: []
    uvs:
    - {x: 0.9023477, y: 0.53711134}
    - {x: 0.9882773, y: 0.53711134}
    - {x: 0.9023477, y: 0.58007616}
    - {x: 0.9882773, y: 0.58007616}
    normalizedUvs:
    - {x: 0, y: 0}
    - {x: 1, y: 0}
    - {x: 0, y: 1}
    - {x: 1, y: 1}
    indices: 000000000300000001000000020000000300000000000000
    material: {fileID: 2100000, guid: 4f7f20b176cf89147bdc3bc0c3e40ea4, type: 2}
    materialId: 0
    sourceTextureGUID: 8dc4616175a810145a55b3e7ca472f0c
    extractRegion: 0
    regionX: 0
    regionY: 0
    regionW: 0
    regionH: 0
    flipped: 0
    complexGeometry: 0
    physicsEngine: 0
    colliderType: 0
    customColliders: []
    colliderVertices: []
    colliderIndicesFwd: 
    colliderIndicesBack: 
    colliderConvex: 0
    colliderSmoothSphereCollisions: 0
    polygonCollider2D: []
    edgeCollider2D: []
    attachPoints: []
  premultipliedAlpha: 0
  material: {fileID: 0}
  materials:
  - {fileID: 2100000, guid: 4f7f20b176cf89147bdc3bc0c3e40ea4, type: 2}
  textures:
  - {fileID: 2800000, guid: ad98cb79ba488bb47a18cc2e279d4d5e, type: 3}
  pngTextures: []
  materialPngTextureId: 00000000
  textureFilterMode: 1
  textureMipMaps: 0
  allowMultipleAtlases: 0
  spriteCollectionGUID: c81511c0112865e4e8197422eb0b0450
  spriteCollectionName: DefaultSpriteCollection
  assetName: 
  loadable: 0
  invOrthoSize: 2
  halfTargetHeight: 0.5
  buildKey: 1610413204
  dataGuid: 3f6a0315a8deb7942a08eed7cff52c75
  managedSpriteCollection: 0
  hasPlatformData: 0
  spriteCollectionPlatforms: []
  spriteCollectionPlatformGUIDs: []
--- !u!1001 &100100000
Prefab:
  m_ObjectHideFlags: 1
  serializedVersion: 2
  m_Modification:
    m_TransformParent: {fileID: 0}
    m_Modifications: []
    m_RemovedComponents: []
  m_ParentPrefab: {fileID: 0}
  m_RootGameObject: {fileID: 197638}
  m_IsPrefabParent: 1
