%YAML 1.1
%TAG !u! tag:unity3d.com,2011:
--- !u!114 &11400000
MonoBehaviour:
  m_ObjectHideFlags: 0
  m_PrefabParentObject: {fileID: 0}
  m_PrefabInternal: {fileID: 0}
  m_GameObject: {fileID: 0}
  m_Enabled: 1
  m_EditorHideFlags: 0
  m_Script: {fileID: 11500000, guid: 2077369b193adc642b74c5f7b8c1c512, type: 3}
  m_Name: Shop
  m_EditorClassIdentifier: 
  m_songName: Shop
  m_fileName: Shop.mid
